Laboratories/Lab2/simulation/qsim/Lab2.msim.vcd
$comment
	File created using the following command:
		vcd file Lab2.msim.vcd -direction
$end
$date
	Thu Mar 17 14:09:18 2022
$end
$version
	ModelSim Version 2020.1
$end
$timescale
	1ps
$end

$scope module two_mux_vhd_vec_tst $end
$var wire 1 ! A $end
$var wire 1 " B $end
$var wire 1 # K $end
$var wire 1 $ Z $end

$scope module i1 $end
$var wire 1 % gnd $end
$var wire 1 & vcc $end
$var wire 1 ' unknown $end
$var wire 1 ( devoe $end
$var wire 1 ) devclrn $end
$var wire 1 * devpor $end
$var wire 1 + ww_devoe $end
$var wire 1 , ww_devclrn $end
$var wire 1 - ww_devpor $end
$var wire 1 . ww_Z $end
$var wire 1 / ww_B $end
$var wire 1 0 ww_K $end
$var wire 1 1 ww_A $end
$var wire 1 2 \Z~output_o\ $end
$var wire 1 3 \B~input_o\ $end
$var wire 1 4 \K~input_o\ $end
$var wire 1 5 \A~input_o\ $end
$var wire 1 6 \inst2~0_combout\ $end
$upscope $end
$upscope $end
$enddefinitions $end
#0
$dumpvars
0!
0"
0#
0$
0%
1&
x'
1(
1)
1*
1+
1,
1-
0.
0/
00
01
02
x3
x4
x5
x6
$end
#801
03
04
05
#3398
x2
x.
x$
#5010
06
#8393
02
0.
0$
#100000
1!
11
#100685
15
#104479
16
#107877
12
1.
1$
#200000
0!
1"
01
1/
#200685
13
#200801
05
#204810
06
#208193
02
0.
0$
#300000
1!
11
#300685
15
#304479
16
#307877
12
1.
1$
#400000
0!
0"
1#
01
0/
10
#400685
14
#400801
03
05
#405176
06
#408559
02
0.
0$
#500000
1!
11
#500685
15
#600000
0!
1"
01
1/
#600685
13
#600801
05
#604769
16
#608167
12
1.
1$
#700000
1!
11
#700685
15
#800000
0!
0"
0#
01
0/
00
#800801
04
03
05
#805010
06
#808393
02
0.
0$
#900000
1!
11
#900685
15
#904479
16
#907877
12
1.
1$
